[
    {
        "dao_name": "RUGFARM",
        "token": "RUG",
        "initial_tokens": "0",
        "current_balance": "0",
        "usd_balance": "0.00 "
    },
    {
        "dao_name": "NEMESIS",
        "token": "NMS",
        "initial_tokens": "0",
        "current_balance": "0",
        "usd_balance": "0.00 "
    },
    {
        "dao_name": "JADEPROTOCOL",
        "token": "JADE",
        "initial_tokens": "0",
        "current_balance": "0",
        "usd_balance": "0.00 "
    },
    {
        "dao_name": "ONEDAO",
        "token": "ODAO",
        "initial_tokens": "0",
        "current_balance": "0",
        "usd_balance": "0.00 "
    },
    {
        "dao_name": "PUMPKIN",
        "token": "PUMP",
        "initial_tokens": "0",
        "current_balance": "0",
        "usd_balance": "0.00 "
    },
    {
        "dao_name": "PIGGYBANK",
        "token": "PB",
        "initial_tokens": "0",
        "current_balance": "0",
        "usd_balance": "0.00 "
    },
    {
        "dao_name": "TAICHI",
        "token": "TAC",
        "initial_tokens": "0",
        "current_balance": "0",
        "usd_balance": "0.00 "
    },
    {
        "dao_name": "FANTOHM",
        "token": "FHM",
        "initial_tokens": "0",
        "current_balance": "0",
        "usd_balance": "0.00 "
    },
    {
        "dao_name": "FORTRESS",
        "token": "FORT",
        "initial_tokens": "0",
        "current_balance": "0",
        "usd_balance": "0.00 "
    },
    {
        "dao_name": "EUPHORIA",
        "token": "WAGMI",
        "initial_tokens": "0",
        "current_balance": "0",
        "usd_balance": "0.00 "
    },
    {
        "dao_name": "SPARTACUS",
        "token": "SPA",
        "initial_tokens": "0",
        "current_balance": "0",
        "usd_balance": "0.00 "
    },
    {
        "dao_name": "SNOWBANK",
        "token": "SB",
        "initial_tokens": "0",
        "current_balance": "0",
        "usd_balance": "0.00 "
    },
    {
        "dao_name": "HECTOR",
        "token": "HEC",
        "initial_tokens": "0",
        "current_balance": "0",
        "usd_balance": "0.00 "
    },
    {
        "dao_name": "OTTERCLAM",
        "token": "CLAM2",
        "initial_tokens": "0",
        "current_balance": "0",
        "usd_balance": "0.00 "
    },
    {
        "dao_name": "METAVERSEPRO",
        "token": "META",
        "initial_tokens": "0",
        "current_balance": "0",
        "usd_balance": "0.00 "
    },
    {
        "dao_name": "XEUS",
        "token": "XEUS",
        "initial_tokens": "0",
        "current_balance": "0",
        "usd_balance": "0.00 "
    },
    {
        "dao_name": "EXODIA",
        "token": "EXOD",
        "initial_tokens": "0",
        "current_balance": "0",
        "usd_balance": "0.00 "
    },
    {
        "dao_name": "PIDAO",
        "token": "PID",
        "initial_tokens": "0",
        "current_balance": "0",
        "usd_balance": "0.00 "
    },
    {
        "dao_name": "HUNNYDAO",
        "token": "LOVE",
        "initial_tokens": "0",
        "current_balance": "0",
        "usd_balance": "0.00 "
    },
    {
        "dao_name": "TITANO",
        "token": "TITANO",
        "initial_tokens": "0",
        "current_balance": "0",
        "usd_balance": "0.00 "
    },
    {
        "dao_name": "WONDERLAND",
        "token": "TIME",
        "initial_tokens": "0",
        "current_balance": "0",
        "usd_balance": "0.00 "
    },
    {
        "dao_name": "INVICTUS DAO",
        "token": "IN",
        "initial_tokens": "0",
        "current_balance": "0",
        "usd_balance": "0.00 "
    },
    {
        "dao_name": "KLIMA",
        "token": "KLIMA",
        "initial_tokens": "0",
        "current_balance": "0",
        "usd_balance": "0.00 "
    },
    {
        "dao_name": "SECUREDAO",
        "token": "NA",
        "initial_tokens": "0",
        "current_balance": "0",
        "usd_balance": "0.00 "
    },
    {
        "dao_name": "TEMPLEDAO",
        "token": "NA",
        "initial_tokens": "0",
        "current_balance": "0",
        "usd_balance": "0.00 "
    },
    {
        "dao_name": "ROMEDAO",
        "token": "NA",
        "initial_tokens": "0",
        "current_balance": "0",
        "usd_balance": "0.00 "
    },
    {
        "dao_name": "SAMSARADAO",
        "token": "NA",
        "initial_tokens": "0",
        "current_balance": "0",
        "usd_balance": "0.00 "
    },
    {
        "dao_name": "AZURADAO",
        "token": "NA",
        "initial_tokens": "0",
        "current_balance": "0",
        "usd_balance": "0.00 "
    },
    {
        "dao_name": "O2DAO",
        "token": "NA",
        "initial_tokens": "0",
        "current_balance": "0",
        "usd_balance": "0.00 "
    },
    {
        "dao_name": "TURINGDAO",
        "token": "NA",
        "initial_tokens": "0",
        "current_balance": "0",
        "usd_balance": "0.00 "
    },
    {
        "dao_name": "NIRVANADAO",
        "token": "NA",
        "initial_tokens": "0",
        "current_balance": "0",
        "usd_balance": "0.00 "
    },
    {
        "dao_name": "DIATOMDAO",
        "token": "NA",
        "initial_tokens": "0",
        "current_balance": "0",
        "usd_balance": "0.00 "
    },
    {
        "dao_name": "PSIDAO",
        "token": "NA",
        "initial_tokens": "0",
        "current_balance": "0",
        "usd_balance": "0.00 "
    },
    {
        "dao_name": "SIGNDAO",
        "token": "NA",
        "initial_tokens": "0",
        "current_balance": "0",
        "usd_balance": "0.00 "
    },
    {
        "dao_name": "AETERNUMDAO",
        "token": "NA",
        "initial_tokens": "0",
        "current_balance": "0",
        "usd_balance": "0.00 "
    },
    {
        "dao_name": "MULTICHAINDAO",
        "token": "NA",
        "initial_tokens": "0",
        "current_balance": "0",
        "usd_balance": "0.00 "
    },
    {
        "dao_name": "DICE DAO",
        "token": "NA",
        "initial_tokens": "0",
        "current_balance": "0",
        "usd_balance": "0.00 "
    }
] 

